{
  "compilerOptions": {
    "plugins": [
      { "name": "tslint-language-service",
        "alwaysShowRuleFailuresAsWarnings": false,
        "ignoreDefinitionFiles": true,
        "configFile": "../tslint.json",
        "disableNoUnusedVariableRule": false,
        "supressWhileTypeErrorsPresent": false,
        "mockTypeScriptVersion": false
      }
    ]
  }
}
